<?xml version='1.0' encoding='UTF-8'?>
<!DOCTYPE svg PUBLIC "-//W3C//DTD SVG 1.0//EN" "http://www.w3.org/TR/2001/REC-SVG-20010904/DTD/svg10.dtd">
<svg viewBox="0 0 640 766" xmlns="http://www.w3.org/2000/svg" xmlns:inkspace="http://www.inkscape.org/namespaces/inkscape" xmlns:xlink="http://www.w3.org/1999/xlink">
  <defs id="defs_block">
    <filter height="1.504" id="filter_blur" inkspace:collect="always" width="1.1575" x="-0.07875" y="-0.252">
      <feGaussianBlur id="feGaussianBlur3780" inkspace:collect="always" stdDeviation="4.2" />
    </filter>
  </defs>
  <title>blockdiag</title>
  <desc>{
"Janus instance 1" -&gt; "Broker" [label="Envoi des infos de JI1 au format UDP"];
"Broker" -&gt; "Janus instance 2" [label="Envoi des infos de JI1 au format ØMQ"];
"Janus instance 2" -&gt; "Janus instance 2" [label="Enregistrement des informations"];
"Janus instance 2" -&gt; "Janus instance 2" [label="Connection à la socket SUB de JI1"];
"Janus instance 1" &lt;- "Janus instance 2" [label="Envoi des infos de JI2"];
"Janus instance 1" -&gt; "Janus instance 1" [label="Enregistrement des informations"];
"Janus instance 1" -&gt; "Janus instance 1" [label="Connect à la socket SUB de JI2"];
}
</desc>
  <rect fill="rgb(0,0,0)" height="579" style="filter:url(#filter_blur);opacity:0.7;fill-opacity:1" width="8" x="127" y="145" />
  <rect fill="rgb(0,0,0)" height="579" style="filter:url(#filter_blur);opacity:0.7;fill-opacity:1" width="8" x="319" y="145" />
  <rect fill="rgb(0,0,0)" height="284" style="filter:url(#filter_blur);opacity:0.7;fill-opacity:1" width="8" x="511" y="214" />
  <rect fill="rgb(0,0,0)" height="40" stroke="rgb(0,0,0)" style="filter:url(#filter_blur);opacity:0.7;fill-opacity:1" width="128" x="67" y="46" />
  <rect fill="rgb(0,0,0)" height="40" stroke="rgb(0,0,0)" style="filter:url(#filter_blur);opacity:0.7;fill-opacity:1" width="128" x="259" y="46" />
  <rect fill="rgb(0,0,0)" height="40" stroke="rgb(0,0,0)" style="filter:url(#filter_blur);opacity:0.7;fill-opacity:1" width="128" x="451" y="46" />
  <path d="M 128 80 L 128 734" fill="none" stroke="rgb(0,0,0)" stroke-dasharray="8 4" />
  <rect fill="moccasin" height="579" stroke="rgb(0,0,0)" width="8" x="124" y="139" />
  <path d="M 320 80 L 320 734" fill="none" stroke="rgb(0,0,0)" stroke-dasharray="8 4" />
  <rect fill="moccasin" height="579" stroke="rgb(0,0,0)" width="8" x="316" y="139" />
  <path d="M 512 80 L 512 734" fill="none" stroke="rgb(0,0,0)" stroke-dasharray="8 4" />
  <rect fill="moccasin" height="284" stroke="rgb(0,0,0)" width="8" x="508" y="208" />
  <rect fill="rgb(255,255,255)" height="40" stroke="rgb(0,0,0)" width="128" x="64" y="40" />
  <text fill="rgb(0,0,0)" font-family="sansserif" font-size="11" font-style="normal" font-weight="normal" x="86" y="67">Janus instance 1</text>
  <rect fill="rgb(255,255,255)" height="40" stroke="rgb(0,0,0)" width="128" x="256" y="40" />
  <text fill="rgb(0,0,0)" font-family="sansserif" font-size="11" font-style="normal" font-weight="normal" x="304" y="67">Broker</text>
  <rect fill="rgb(255,255,255)" height="40" stroke="rgb(0,0,0)" width="128" x="448" y="40" />
  <text fill="rgb(0,0,0)" font-family="sansserif" font-size="11" font-style="normal" font-weight="normal" x="470" y="67">Janus instance 2</text>
  <path d="M 136 139 L 312 139" fill="none" stroke="rgb(0,0,0)" />
  <polygon fill="rgb(0,0,0)" points="304,135 312,139 304,143" stroke="rgb(0,0,0)" />
  <path d="M 328 208 L 504 208" fill="none" stroke="rgb(0,0,0)" />
  <polygon fill="rgb(0,0,0)" points="496,204 504,208 496,212" stroke="rgb(0,0,0)" />
  <path d="M 520 292 L 600 292" fill="none" stroke="rgb(0,0,0)" />
  <path d="M 600 292 L 600 308" fill="none" stroke="rgb(0,0,0)" />
  <path d="M 600 308 L 520 308" fill="none" stroke="rgb(0,0,0)" />
  <polygon fill="rgb(0,0,0)" points="528,304 520,308 528,312" stroke="rgb(0,0,0)" />
  <path d="M 520 407 L 600 407" fill="none" stroke="rgb(0,0,0)" />
  <path d="M 600 407 L 600 423" fill="none" stroke="rgb(0,0,0)" />
  <path d="M 600 423 L 520 423" fill="none" stroke="rgb(0,0,0)" />
  <polygon fill="rgb(0,0,0)" points="528,419 520,423 528,427" stroke="rgb(0,0,0)" />
  <path d="M 136 492 L 504 492" fill="none" stroke="rgb(0,0,0)" />
  <polygon fill="rgb(0,0,0)" points="144,488 136,492 144,496" stroke="rgb(0,0,0)" />
  <path d="M 136 576 L 224 576" fill="none" stroke="rgb(0,0,0)" />
  <path d="M 224 576 L 224 592" fill="none" stroke="rgb(0,0,0)" />
  <path d="M 224 592 L 136 592" fill="none" stroke="rgb(0,0,0)" />
  <polygon fill="rgb(0,0,0)" points="144,588 136,592 144,596" stroke="rgb(0,0,0)" />
  <path d="M 136 676 L 224 676" fill="none" stroke="rgb(0,0,0)" />
  <path d="M 224 676 L 224 692" fill="none" stroke="rgb(0,0,0)" />
  <path d="M 224 692 L 136 692" fill="none" stroke="rgb(0,0,0)" />
  <polygon fill="rgb(0,0,0)" points="144,688 136,692 144,696" stroke="rgb(0,0,0)" />
  <text fill="rgb(0,0,0)" font-family="sansserif" font-size="11" font-style="normal" font-weight="normal" x="140" y="135">Envoi des infos de JI1 au format UDP</text>
  <text fill="rgb(0,0,0)" font-family="sansserif" font-size="11" font-style="normal" font-weight="normal" x="332" y="204">Envoi des infos de JI1 au format ØMQ</text>
  <text fill="rgb(0,0,0)" font-family="sansserif" font-size="11" font-style="normal" font-weight="normal" x="520" y="273">Enregistrement des </text>
  <text fill="rgb(0,0,0)" font-family="sansserif" font-size="11" font-style="normal" font-weight="normal" x="520" y="288">informations</text>
  <text fill="rgb(0,0,0)" font-family="sansserif" font-size="11" font-style="normal" font-weight="normal" x="520" y="373">Connection à la so</text>
  <text fill="rgb(0,0,0)" font-family="sansserif" font-size="11" font-style="normal" font-weight="normal" x="520" y="388">cket SUB de JI1</text>
  <text fill="rgb(0,0,0)" font-family="sansserif" font-size="11" font-style="normal" font-weight="normal" x="395" y="488">Envoi des infos de JI2</text>
  <text fill="rgb(0,0,0)" font-family="sansserif" font-size="11" font-style="normal" font-weight="normal" x="136" y="557">Enregistrement des i</text>
  <text fill="rgb(0,0,0)" font-family="sansserif" font-size="11" font-style="normal" font-weight="normal" x="136" y="572">nformations</text>
  <text fill="rgb(0,0,0)" font-family="sansserif" font-size="11" font-style="normal" font-weight="normal" x="136" y="657">Connect à la socket </text>
  <text fill="rgb(0,0,0)" font-family="sansserif" font-size="11" font-style="normal" font-weight="normal" x="136" y="672">SUB de JI2</text>
</svg>
